<?xml version="1.0" encoding="utf-8"?>
<!-- Generator: Adobe Illustrator 21.1.0, SVG Export Plug-In . SVG Version: 6.00 Build 0)  -->
<svg version="1.1" id="Layer_1" xmlns="http://www.w3.org/2000/svg" xmlns:xlink="http://www.w3.org/1999/xlink" x="0px" y="0px"
	 viewBox="0 0 532 153" style="enable-background:new 0 0 532 153;" xml:space="preserve">
<style type="text/css">
	.st0{fill:none;}
	.st1{fill:#FFFFFF;}
</style>
<g>
	<rect x="0" y="0" class="st0" width="533" height="153"/>
	<g>
		<g>
			<path class="st1" d="M205.6,81.3v6h11.1v4.6h-11.1v9.3h-5.5V76.7h17.6v4.6C217.7,81.3,205.6,81.3,205.6,81.3z"/>
			<path class="st1" d="M225.5,101.2V76.7h5.5v24.5H225.5z"/>
			<path class="st1" d="M257.9,101.2L246,85.5v15.7h-5.3V76.7h5l11.9,15.8V76.7h5.3v24.5H257.9z"/>
			<path class="st1" d="M283.2,76.7c7.6,0,12.9,5,12.9,12.3c0,7.2-5.4,12.3-13.1,12.3h-10.2V76.7H283.2z M278.3,96.5h5
				c4.1,0,7.1-3.1,7.1-7.6c0-4.5-3.2-7.6-7.4-7.6h-4.8L278.3,96.5L278.3,96.5z"/>
			<path class="st1" d="M322.6,96.4l-1.9,4.8H315l10.6-24.5h5.7l10.5,24.5h-5.9l-1.9-4.8C334,96.4,322.6,96.4,322.6,96.4z
				 M328.3,82.5l-3.9,9.5h7.7L328.3,82.5z"/>
			<path class="st1" d="M380.7,79.1l-2.1,4.6c-2.6-1.5-5.7-2.5-7.6-2.5s-3.1,0.7-3.1,2c0,4.5,13.1,2,13,10.8c0,4.8-4.2,7.4-9.6,7.4
				c-4,0-8.1-1.5-10.8-3.9l2.2-4.5c2.5,2.2,6.1,3.7,8.7,3.7c2.3,0,3.6-0.8,3.6-2.3c0-4.6-13.1-1.9-13.1-10.6c0-4.4,3.8-7.2,9.5-7.2
				C374.8,76.4,378.2,77.5,380.7,79.1z"/>
			<path class="st1" d="M399.7,76.7c6.2,0,9.8,3.1,9.8,8.5c0,5.7-3.6,9-9.8,9h-4.9v7h-5.5V76.7H399.7z M394.7,89.6h4.6
				c3.1,0,4.8-1.4,4.8-4.2c0-2.7-1.8-4.1-4.8-4.1h-4.6V89.6z"/>
			<path class="st1" d="M442.1,88.9c0,7.1-5.7,12.5-13.2,12.5s-13.2-5.4-13.2-12.5s5.7-12.4,13.2-12.4
				C436.4,76.5,442.1,81.8,442.1,88.9z M421.4,88.9c0,4.3,3.5,7.7,7.6,7.7s7.4-3.4,7.4-7.7s-3.3-7.6-7.4-7.6S421.4,84.6,421.4,88.9z
				"/>
			<path class="st1" d="M460.1,81.4v19.8h-5.5V81.4H447v-4.7h20.5v4.7H460.1z"/>
		</g>
	</g>
	<g>
		<path class="st1" d="M71.8,118.1c0.5,0.6,1.3,0.9,2.1,0.9c0.8,0,1.6-0.3,2.1-1c1-1.1,24-27.5,36.8-56.6c2.8-5.8,4.2-12,4.2-18.4
			c0-23.7-19.4-43-43.3-43S30.4,19.3,30.4,43c0,6.5,1.4,12.7,4.1,18.3C47.3,90.5,70.8,116.9,71.8,118.1z M73.7,5.7
			c20.7,0,37.7,16.7,37.7,37.3c0,5.5-1.2,10.9-3.7,16.1c-10.2,23.4-27.8,45.5-33.8,52.8c-6.1-7.3-23.9-29.4-34.2-52.8
			C37.3,54,36.1,48.6,36.1,43C36.1,22.4,52.9,5.7,73.7,5.7z"/>
		<path class="st1" d="M73.7,63c11.3,0,20.5-9.2,20.5-20.5S85,22,73.7,22s-20.5,9.2-20.5,20.5S62.3,63,73.7,63z M73.7,27.7
			c8.2,0,14.8,6.7,14.8,14.8s-6.7,14.8-14.8,14.8s-14.8-6.7-14.8-14.8S65.5,27.7,73.7,27.7z"/>
		<path class="st1" d="M147.5,149.5l-17-65.2c-0.2-0.9-0.9-1.6-1.7-1.9l-14.2-5.7l-2.1,5.3l12.8,5.1l15.1,57.7l-28.5-14.2
			c-0.8-0.4-1.7-0.4-2.5,0L73.9,147l-35.8-16.4c-0.8-0.4-1.7-0.3-2.5,0L7.2,144.8l15.1-57.7L35.2,82l-2.1-5.3l-14.2,5.7
			c-0.8,0.3-1.5,1-1.7,1.9l-17,65.2c-0.3,1.1,0.1,2.2,1,2.9s2.1,0.8,3.1,0.3l32.9-16.4l35.7,16.4c0.8,0.3,1.6,0.3,2.4,0l35.7-16.4
			l32.9,16.4c0.4,0.2,0.8,0.3,1.3,0.3c0.6,0,1.3-0.2,1.8-0.6C147.4,151.7,147.8,150.5,147.5,149.5z"/>
	</g>
</g>
</svg>
