<?xml version="1.0" encoding="utf-8"?>
<!-- Generator: Adobe Illustrator 19.1.0, SVG Export Plug-In . SVG Version: 6.00 Build 0)  -->
<svg version="1.1" id="Layer_1" xmlns="http://www.w3.org/2000/svg" xmlns:xlink="http://www.w3.org/1999/xlink" x="0px" y="0px"
	 viewBox="0 0 160 160" style="enable-background:new 0 0 160 160;" xml:space="preserve">
<style type="text/css">
	.st0{fill:#F9526C;}
	.st1{fill:#FFFFFF;}
	.st2{fill:#49C0B8;}
	.st3{fill:#9964D0;}
	.st4{fill:#F79E7B;}
	.st5{fill:#FFD252;}
	.st6{fill:#D44E66;}
	.st7{fill:#EC6A6A;}
	.st8{fill:none;stroke:#FFFFFF;stroke-width:6;stroke-miterlimit:10;}
	.st9{fill:#222222;}
	.st10{fill:#FFFFFF;stroke:#FFFFFF;stroke-width:0.4986;stroke-miterlimit:10;}
	.st11{fill:none;stroke:#FFD252;stroke-width:22.8887;stroke-miterlimit:10;}
	.st12{fill:#333333;}
	.st13{fill:#F1F2F2;}
	.st14{fill:none;stroke:#F1F2F2;stroke-width:9.2368;stroke-miterlimit:10;}
	.st15{fill:none;stroke:#F1F2F2;stroke-width:6.1579;stroke-miterlimit:10;}
	.st16{fill:none;stroke:#FFFFFF;stroke-width:2;stroke-miterlimit:10;}
	.st17{fill:#FFFFFF;stroke:#FFFFFF;stroke-width:3.297;stroke-miterlimit:10;}
	.st18{fill:#FFFFFF;stroke:#FFFFFF;stroke-width:3;stroke-miterlimit:10;}
	.st19{fill:#FFFFFF;stroke:#FFFFFF;stroke-width:2.27;stroke-miterlimit:10;}
	.st20{fill:#FFFFFF;stroke:#FFFFFF;stroke-width:2.5203;stroke-miterlimit:10;}
	.st21{fill:#F79E7B;stroke:#F79E7B;stroke-width:2;stroke-miterlimit:10;}
	.st22{fill:#9964D0;stroke:#9964D0;stroke-width:2;stroke-miterlimit:10;}
	.st23{fill:#49C0B8;stroke:#49C0B8;stroke-width:2;stroke-miterlimit:10;}
	.st24{fill:#F9526C;stroke:#F9526C;stroke-width:2;stroke-miterlimit:10;}
	.st25{fill:none;stroke:#CCCCCC;stroke-width:2;stroke-miterlimit:10;}
	.st26{fill:#4D4D4D;}
	.st27{opacity:0.7;fill:#FFFFFF;}
	.st28{fill:none;stroke:#F9526C;stroke-width:3;stroke-miterlimit:10;}
	.st29{fill:#2F236A;}
	.st30{fill:#FFFFFF;stroke:#FFFFFF;stroke-width:2.8236;stroke-miterlimit:10;}
	.st31{fill:#FFFFFF;stroke:#FFFFFF;stroke-width:2.682;stroke-miterlimit:10;}
	.st32{fill:#5D5D5D;}
	.st33{fill:none;stroke:#49C0B8;stroke-width:2;stroke-miterlimit:10;}
	.st34{fill:none;}
	.st35{fill:#FFFFFF;stroke:#FFFFFF;stroke-width:2.7959;stroke-miterlimit:10;}
	.st36{fill:#FFFFFF;stroke:#FFFFFF;stroke-width:2.6557;stroke-miterlimit:10;}
</style>
<g>
	<path class="st7" d="M153.1,160H6.9c-3.8,0-6.9-3.1-6.9-6.9V6.9C0,3.1,3.1,0,6.9,0h146.1c3.8,0,6.9,3.1,6.9,6.9v146.1
		C160,156.9,156.9,160,153.1,160z"/>
	<g>
		<path class="st1" d="M26.6,129.3l-1.4,3c-1.7-1-3.7-1.6-5-1.6c-1.2,0-2,0.4-2,1.3c0,2.9,8.5,1.3,8.5,7.1c0,3.1-2.7,4.8-6.3,4.8
			c-2.6,0-5.2-1-7-2.5l1.4-2.9c1.6,1.5,4,2.4,5.7,2.4c1.5,0,2.4-0.5,2.4-1.5c0-3-8.5-1.3-8.5-6.9c0-2.9,2.5-4.7,6.2-4.7
			C22.8,127.5,25,128.2,26.6,129.3z"/>
		<path class="st1" d="M35.8,130.7v3.5h7.7v3h-7.7v3.5h8.8v3H32.2v-16h12.2v3H35.8z"/>
		<path class="st1" d="M57.2,130.8v12.9h-3.6v-12.9h-4.9v-3.1h13.3v3.1H57.2z"/>
		<path class="st1" d="M74.4,130.8v12.9h-3.6v-12.9h-4.9v-3.1h13.3v3.1H74.4z"/>
		<path class="st1" d="M83.9,143.7v-16h3.6v16H83.9z"/>
		<path class="st1" d="M105.1,143.7l-7.7-10.2v10.2h-3.4v-16h3.3l7.8,10.3v-10.3h3.4v16H105.1z"/>
		<path class="st1" d="M128.7,135.6v6.1c-1.7,1.2-4.3,2.1-6.5,2.1c-4.8,0-8.5-3.5-8.5-8.1c0-4.6,3.7-8.1,8.7-8.1
			c2.4,0,4.8,0.9,6.4,2.3l-2,2.6c-1.2-1.1-2.8-1.8-4.4-1.8c-2.8,0-5,2.2-5,5c0,2.8,2.2,5,5,5c1,0,2.1-0.3,3.1-0.9v-4.2H128.7z"/>
		<path class="st1" d="M146.5,129.3l-1.4,3c-1.7-1-3.7-1.6-5-1.6c-1.2,0-2,0.4-2,1.3c0,2.9,8.5,1.3,8.5,7.1c0,3.1-2.7,4.8-6.3,4.8
			c-2.6,0-5.2-1-7-2.5l1.4-2.9c1.6,1.5,4,2.4,5.7,2.4c1.5,0,2.4-0.5,2.4-1.5c0-3-8.5-1.3-8.5-6.9c0-2.9,2.5-4.7,6.2-4.7
			C142.7,127.5,144.9,128.2,146.5,129.3z"/>
	</g>
	<g id="_x31_2_5_">
		<g>
			<path class="st36" d="M80,90c-4.6,0-9.1-1.4-13-3.9c-4-2.6-7-6.4-8.7-10.8c-2.3-5.8-2.2-12.1,0.3-17.8c2.5-5.7,7-10.1,12.8-12.4
				c2.7-1.1,5.6-1.6,8.5-1.6c4.6,0,9.1,1.4,13,3.9c4,2.6,7,6.4,8.7,10.8c2.3,5.8,2.2,12.1-0.3,17.8c-2.5,5.7-7,10.1-12.8,12.4
				C85.8,89.5,82.9,90,80,90z M80,46.1c-2.6,0-5.1,0.5-7.6,1.4c-5.1,2-9.2,5.9-11.3,11c-2.2,5.1-2.3,10.7-0.3,15.8
				c3.1,7.9,10.7,13.1,19.2,13.1c2.6,0,5.1-0.5,7.6-1.4c5.1-2,9.2-5.9,11.3-11c2.2-5.1,2.3-10.7,0.3-15.8C96,51.2,88.5,46.1,80,46.1
				z"/>
		</g>
		<g>
			<path class="st36" d="M91,109.2c-1.4,0-2.7-0.7-3.5-1.9l-3.2-4.8c-0.3-0.4-0.8-0.7-1.4-0.6c-2.4,0.2-4.8,0.2-7.1-0.1
				c-0.5-0.1-1.1,0.2-1.4,0.6l-3.3,4.7c-0.8,1.1-2,1.8-3.4,1.8c-0.6,0-1.1-0.1-1.7-0.3l-7.1-3.1c-1.8-0.8-2.8-2.7-2.4-4.6l1.2-5.7
				c0.1-0.5-0.1-1.1-0.5-1.4c-1.8-1.5-3.5-3.3-5-5.1c-0.3-0.4-0.9-0.6-1.4-0.5l-5.7,1C45,89,44.7,89,44.5,89c-1.7,0-3.2-1-3.9-2.6
				l-2.8-7.2c-0.7-1.8-0.1-3.9,1.6-5l4.8-3.2c0.4-0.3,0.7-0.8,0.6-1.4c-0.2-2.4-0.2-4.8,0.1-7.1c0.1-0.5-0.2-1.1-0.6-1.4l-4.7-3.3
				c-1.6-1.1-2.2-3.2-1.4-5l3.1-7.1c0.7-1.5,2.2-2.5,3.8-2.5c0.3,0,0.6,0,0.8,0.1l5.7,1.2c0.5,0.1,1.1-0.1,1.4-0.5
				c1.5-1.8,3.3-3.5,5.1-4.9c0.4-0.3,0.6-0.9,0.5-1.4l-1-5.7c-0.3-1.9,0.7-3.8,2.6-4.6l7.2-2.8c0.5-0.2,1-0.3,1.5-0.3
				c1.4,0,2.7,0.7,3.5,1.9l3.2,4.8c0.3,0.4,0.8,0.7,1.4,0.6c2.4-0.2,4.8-0.2,7.1,0.1c0.5,0.1,1.1-0.2,1.4-0.6l3.3-4.7
				c0.8-1.1,2-1.8,3.4-1.8c0.6,0,1.1,0.1,1.7,0.3L101,28c1.8,0.8,2.8,2.7,2.4,4.6l-1.2,5.7c-0.1,0.5,0.1,1.1,0.5,1.4
				c1.8,1.5,3.5,3.2,4.9,5.1c0.3,0.4,0.9,0.6,1.4,0.5l5.7-1c0.2,0,0.5-0.1,0.7-0.1c1.7,0,3.2,1,3.9,2.6l2.8,7.2
				c0.7,1.8,0.1,3.9-1.6,5l-4.8,3.2c-0.4,0.3-0.7,0.8-0.6,1.4c0.2,2.4,0.2,4.7-0.1,7.1c-0.1,0.5,0.2,1.1,0.6,1.4l4.7,3.3
				c1.6,1.1,2.2,3.2,1.4,5l-3.1,7.1c-0.7,1.5-2.2,2.5-3.8,2.5h0c-0.3,0-0.6,0-0.8-0.1l-5.7-1.2c-0.5-0.1-1.1,0.1-1.4,0.5
				c-1.5,1.8-3.2,3.5-5.1,4.9c-0.4,0.3-0.6,0.9-0.5,1.4l1,5.7c0.3,1.9-0.7,3.8-2.6,4.6l-7.2,2.8C92,109.1,91.5,109.2,91,109.2z
				 M83.1,99.1c1.4,0,2.7,0.7,3.5,1.9l3.2,4.8c0.3,0.4,0.7,0.7,1.2,0.7c0.2,0,0.4,0,0.5-0.1l7.2-2.8c0.6-0.3,1-0.9,0.9-1.6l-1-5.7
				c-0.3-1.5,0.3-3,1.5-4c1.7-1.4,3.3-2.9,4.7-4.6c0.8-0.9,2-1.5,3.2-1.5c0.3,0,0.6,0,0.8,0.1l5.7,1.2c0.1,0,0.2,0,0.3,0
				c0.6,0,1.1-0.3,1.3-0.9l3.1-7.1c0.3-0.6,0.1-1.4-0.5-1.8l-4.7-3.3c-1.2-0.9-1.9-2.4-1.7-3.9c0.3-2.2,0.3-4.4,0.1-6.6
				c-0.1-1.5,0.6-3,1.9-3.8l4.8-3.2c0.6-0.4,0.8-1.1,0.6-1.7l-2.8-7.2c-0.2-0.5-0.8-0.9-1.3-0.9c-0.1,0-0.2,0-0.2,0l-5.7,1
				c-0.2,0-0.5,0.1-0.7,0.1c-1.3,0-2.5-0.6-3.3-1.6c-1.4-1.7-2.9-3.3-4.6-4.7c-1.2-1-1.7-2.5-1.4-4l1.2-5.7c0.1-0.7-0.2-1.4-0.8-1.6
				l-7.1-3.1c-0.2-0.1-0.4-0.1-0.6-0.1c-0.5,0-0.9,0.2-1.2,0.6l-3.3,4.7c-0.8,1.1-2,1.8-3.4,1.8c-0.2,0-0.3,0-0.5,0
				c-2.2-0.3-4.4-0.3-6.6-0.1c-0.1,0-0.2,0-0.4,0c-1.4,0-2.7-0.7-3.5-1.9l-3.2-4.8c-0.3-0.4-0.7-0.7-1.2-0.7c-0.2,0-0.4,0-0.5,0.1
				l-7.2,2.8c-0.6,0.3-1,0.9-0.9,1.6l1,5.7c0.3,1.5-0.3,3-1.5,4c-1.7,1.4-3.3,2.9-4.7,4.6c-0.8,0.9-2,1.5-3.2,1.5
				c-0.3,0-0.6,0-0.8-0.1l-5.7-1.2c-0.1,0-0.2,0-0.3,0c-0.6,0-1.1,0.3-1.3,0.9l-3.1,7.1c-0.3,0.6-0.1,1.4,0.5,1.8l4.7,3.3
				c1.2,0.9,1.9,2.4,1.7,3.9c-0.3,2.2-0.3,4.4-0.1,6.6c0.1,1.5-0.6,3-1.9,3.8l-4.8,3.2c-0.6,0.4-0.8,1.1-0.6,1.7l2.8,7.2
				c0.2,0.6,0.9,1,1.6,0.9l5.7-1c0.2,0,0.5-0.1,0.7-0.1c1.3,0,2.5,0.6,3.3,1.6c1.4,1.7,2.9,3.3,4.6,4.7c1.2,1,1.7,2.5,1.4,4
				l-1.2,5.7c-0.1,0.7,0.2,1.4,0.8,1.6l7.1,3.1c0.2,0.1,0.4,0.1,0.6,0.1c0.5,0,0.9-0.2,1.2-0.6l3.3-4.7c0.8-1.1,2-1.8,3.4-1.8
				c0.2,0,0.3,0,0.5,0c2.2,0.3,4.4,0.3,6.6,0.1C82.8,99.1,83,99.1,83.1,99.1z"/>
		</g>
	</g>
</g>
</svg>
